{"photos":{"page":1,"pages":4391,"perpage":25,"total":109754,"photo":[{"id":"53152202084","owner":"125118205@N08","secret":"09f7bd5a77","server":"65535","farm":66,"title":"Greylag gooses in formation, The Netherlands.","ispublic":1,"isfriend":0,"isfamily":0},{"id":"53152165385","owner":"22789397@N05","secret":"07ea83959a","server":"65535","farm":66,"title":"Viencon - Limburgse Peel - America - The Netherlands -2023-08-25- P1294189","ispublic":1,"isfriend":0,"isfamily":0},{"id":"53152159825","owner":"22789397@N05","secret":"1e7074a788","server":"65535","farm":66,"title":"Viencon - Limburgse Peel - America - The Netherlands -2023-08-25- P1294327","ispublic":1,"isfriend":0,"isfamily":0},{"id":"53152219573","owner":"22789397@N05","secret":"56e78afb6c","server":"65535","farm":66,"title":"Viencon - Limburgse Peel - America - The Netherlands -2023-08-25- P1294434","ispublic":1,"isfriend":0,"isfamily":0},{"id":"53151764929","owner":"188898391@N03","secret":"80966f94dd","server":"65535","farm":66,"title":"CANADA 1961 Natural Resources for Tomorrow","ispublic":1,"isfriend":0,"isfamily":0},{"id":"53151995030","owner":"188898391@N03","secret":"037d948777","server":"65535","farm":66,"title":"1932 Hungary 4f","ispublic":1,"isfriend":0,"isfamily":0},{"id":"53151757489","owner":"83803724@N00","secret":"f0ccdf6edf","server":"65535","farm":66,"title":"Ki-84_hayate_wreck_Manggar_Balikpapan_Borneo_NEI__1945-AWM-01","ispublic":1,"isfriend":0,"isfamily":0},{"id":"53152053143","owner":"83803724@N00","secret":"6879655e23","server":"65535","farm":66,"title":"J2M_Raiden_381-ku_902-hikotai_wreck_Manggar_Borneo_NEI_1945-PW5-AWM-02","ispublic":1,"isfriend":0,"isfamily":0},{"id":"53150940607","owner":"159763045@N05","secret":"87d4b14563","server":"65535","farm":66,"title":"Netherlands","ispublic":1,"isfriend":0,"isfamily":0},{"id":"53151948630","owner":"159763045@N05","secret":"3e10bcc0c1","server":"65535","farm":66,"title":"Netherlands","ispublic":1,"isfriend":0,"isfamily":0},{"id":"53152012593","owner":"159763045@N05","secret":"293e33c5dc","server":"65535","farm":66,"title":"Netherlands","ispublic":1,"isfriend":0,"isfamily":0},{"id":"53152012018","owner":"159763045@N05","secret":"b70b3239d6","server":"65535","farm":66,"title":"Netherlands","ispublic":1,"isfriend":0,"isfamily":0},{"id":"53151513501","owner":"159763045@N05","secret":"5ceb5726d8","server":"65535","farm":66,"title":"Netherlands","ispublic":1,"isfriend":0,"isfamily":0},{"id":"53151945135","owner":"159763045@N05","secret":"49ab0733f3","server":"65535","farm":66,"title":"Netherlands","ispublic":1,"isfriend":0,"isfamily":0},{"id":"53151509321","owner":"159763045@N05","secret":"61762703cd","server":"65535","farm":66,"title":"Netherlands","ispublic":1,"isfriend":0,"isfamily":0},{"id":"53151509311","owner":"159763045@N05","secret":"ca1a18d4fc","server":"65535","farm":66,"title":"Netherlands","ispublic":1,"isfriend":0,"isfamily":0},{"id":"53151713124","owner":"159763045@N05","secret":"33ea46b20c","server":"65535","farm":66,"title":"Netherlands","ispublic":1,"isfriend":0,"isfamily":0},{"id":"53150934632","owner":"159763045@N05","secret":"cb333f8b07","server":"65535","farm":66,"title":"Netherlands","ispublic":1,"isfriend":0,"isfamily":0},{"id":"53151942590","owner":"159763045@N05","secret":"477b4b560b","server":"65535","farm":66,"title":"Netherlands","ispublic":1,"isfriend":0,"isfamily":0},{"id":"53151712114","owner":"159763045@N05","secret":"12599a6519","server":"65535","farm":66,"title":"Netherlands","ispublic":1,"isfriend":0,"isfamily":0},{"id":"53150933327","owner":"159763045@N05","secret":"2452b6ddb1","server":"65535","farm":66,"title":"Netherlands","ispublic":1,"isfriend":0,"isfamily":0},{"id":"53152004553","owner":"159763045@N05","secret":"a52f86184c","server":"65535","farm":66,"title":"Netherlands","ispublic":1,"isfriend":0,"isfamily":0},{"id":"53151710274","owner":"159763045@N05","secret":"985bbd463e","server":"65535","farm":66,"title":"Netherlands","ispublic":1,"isfriend":0,"isfamily":0},{"id":"53150930427","owner":"159763045@N05","secret":"1876933cd4","server":"65535","farm":66,"title":"Netherlands","ispublic":1,"isfriend":0,"isfamily":0},{"id":"53152002558","owner":"159763045@N05","secret":"54828c5bcb","server":"65535","farm":66,"title":"Netherlands","ispublic":1,"isfriend":0,"isfamily":0}]},"stat":"ok"}
