{"photos":{"page":2,"pages":4390,"perpage":25,"total":109750,"photo":[{"id":"53152002173","owner":"159763045@N05","secret":"3847aee3c8","server":"65535","farm":66,"title":"Netherlands","ispublic":1,"isfriend":0,"isfamily":0},{"id":"53151706704","owner":"159763045@N05","secret":"5b27b97990","server":"65535","farm":66,"title":"Netherlands","ispublic":1,"isfriend":0,"isfamily":0},{"id":"53151706509","owner":"159763045@N05","secret":"895443cb15","server":"65535","farm":66,"title":"Netherlands","ispublic":1,"isfriend":0,"isfamily":0},{"id":"53151706049","owner":"159763045@N05","secret":"ea2791ce9a","server":"65535","farm":66,"title":"Netherlands","ispublic":1,"isfriend":0,"isfamily":0},{"id":"53151500411","owner":"159763045@N05","secret":"1a9d7f88f1","server":"65535","farm":66,"title":"Netherlands","ispublic":1,"isfriend":0,"isfamily":0},{"id":"53151499516","owner":"159763045@N05","secret":"e85717dd00","server":"65535","farm":66,"title":"Netherlands","ispublic":1,"isfriend":0,"isfamily":0},{"id":"53151995413","owner":"159763045@N05","secret":"ec259e7247","server":"65535","farm":66,"title":"Netherlands","ispublic":1,"isfriend":0,"isfamily":0},{"id":"53151701989","owner":"159763045@N05","secret":"e22ec62e13","server":"65535","farm":66,"title":"Netherlands","ispublic":1,"isfriend":0,"isfamily":0},{"id":"53151524091","owner":"159763045@N05","secret":"f102718411","server":"65535","farm":66,"title":"Netherlands","ispublic":1,"isfriend":0,"isfamily":0},{"id":"53152020303","owner":"159763045@N05","secret":"2fd2f0c4e1","server":"65535","farm":66,"title":"Netherlands","ispublic":1,"isfriend":0,"isfamily":0},{"id":"53151521646","owner":"159763045@N05","secret":"737d4e5d18","server":"65535","farm":66,"title":"Netherlands","ispublic":1,"isfriend":0,"isfamily":0},{"id":"53151722069","owner":"159763045@N05","secret":"03bd740c05","server":"65535","farm":66,"title":"Netherlands","ispublic":1,"isfriend":0,"isfamily":0},{"id":"53150942957","owner":"159763045@N05","secret":"8296ff8c3a","server":"65535","farm":66,"title":"Netherlands","ispublic":1,"isfriend":0,"isfamily":0},{"id":"53151516511","owner":"159763045@N05","secret":"606a790746","server":"65535","farm":66,"title":"Netherlands","ispublic":1,"isfriend":0,"isfamily":0},{"id":"53152014368","owner":"159763045@N05","secret":"acd79410b8","server":"65535","farm":66,"title":"Netherlands","ispublic":1,"isfriend":0,"isfamily":0},{"id":"53151608389","owner":"195730538@N02","secret":"b1cd58991f","server":"65535","farm":66,"title":"2023 Men's Softball European Super Cup - Day 2: Meteors (GBR) VS Czechia U23 (CZE) Photos by Danny Vroemen","ispublic":1,"isfriend":0,"isfamily":0},{"id":"53151901048","owner":"195730538@N02","secret":"ab84e2b248","server":"65535","farm":66,"title":"2023 Men's Softball European Super Cup - Day 2: Meteors (GBR) VS Czechia U23 (CZE) Photos by Danny Vroemen","ispublic":1,"isfriend":0,"isfamily":0},{"id":"53151899823","owner":"195730538@N02","secret":"99f831cdb2","server":"65535","farm":66,"title":"2023 Men's Softball European Super Cup - Day 2: Meteors (GBR) VS Czechia U23 (CZE) Photos by Danny Vroemen","ispublic":1,"isfriend":0,"isfamily":0},{"id":"53151611494","owner":"195730538@N02","secret":"9b304c7d5d","server":"65535","farm":66,"title":"2023 Men's Softball European Super Cup - Day 2: Meteors (GBR) VS Czechia U23 (CZE) Photos by Danny Vroemen","ispublic":1,"isfriend":0,"isfamily":0},{"id":"53151839750","owner":"195730538@N02","secret":"668250c68f","server":"65535","farm":66,"title":"2023 Men's Softball European Super Cup - Day 2: Meteors (GBR) VS Czechia U23 (CZE) Photos by Danny Vroemen","ispublic":1,"isfriend":0,"isfamily":0},{"id":"53150829792","owner":"195730538@N02","secret":"598250e743","server":"65535","farm":66,"title":"2023 Men's Softball European Super Cup - Day 2: Meteors (GBR) VS Czechia U23 (CZE) Photos by Danny Vroemen","ispublic":1,"isfriend":0,"isfamily":0},{"id":"53151887373","owner":"195730538@N02","secret":"40f0829275","server":"65535","farm":66,"title":"2023 Men's Softball European Super Cup - Day 2: Stenl\u00f8se Bulls (DEN) VS Vennep Flyers (NED)  Photos by Danny Vroemen","ispublic":1,"isfriend":0,"isfamily":0},{"id":"53150813457","owner":"195730538@N02","secret":"115672abf2","server":"65535","farm":66,"title":"2023 Men's Softball European Super Cup - Day 2: Stenl\u00f8se Bulls (DEN) VS Vennep Flyers (NED)  Photos by Danny Vroemen","ispublic":1,"isfriend":0,"isfamily":0},{"id":"53151588399","owner":"195730538@N02","secret":"5d4fca4bc2","server":"65535","farm":66,"title":"2023 Men's Softball European Super Cup - Day 2: Stenl\u00f8se Bulls (DEN) VS Vennep Flyers (NED)  Photos by Danny Vroemen","ispublic":1,"isfriend":0,"isfamily":0},{"id":"53151878068","owner":"195730538@N02","secret":"10ca09d7f2","server":"65535","farm":66,"title":"2023 Men's Softball European Super Cup - Day 2: Stenl\u00f8se Bulls (DEN) VS Vennep Flyers (NED)  Photos by Danny Vroemen","ispublic":1,"isfriend":0,"isfamily":0}]},"stat":"ok"}
