{"photos":{"page":3,"pages":4392,"perpage":25,"total":109777,"photo":[{"id":"53151813675","owner":"195730538@N02","secret":"ae2424fd30","server":"65535","farm":66,"title":"2023 Men's Softball European Super Cup - Day 2: Stenl\u00f8se Bulls (DEN) VS Vennep Flyers (NED)  Photos by Danny Vroemen","ispublic":1,"isfriend":0,"isfamily":0},{"id":"53151874593","owner":"195730538@N02","secret":"62a8dd402c","server":"65535","farm":66,"title":"2023 Men's Softball European Super Cup - Day 2: Stenl\u00f8se Bulls (DEN) VS Vennep Flyers (NED)  Photos by Danny Vroemen","ispublic":1,"isfriend":0,"isfamily":0},{"id":"53151432784","owner":"140611598@N07","secret":"484851605f","server":"65535","farm":66,"title":"Amsterdam, StreetArt Museum Straat","ispublic":1,"isfriend":0,"isfamily":0},{"id":"53150156067","owner":"23363966@N02","secret":"e217316717","server":"65535","farm":66,"title":"1995 Mercedes Benz SL 600","ispublic":1,"isfriend":0,"isfamily":0},{"id":"53151382720","owner":"196567533@N02","secret":"01af7c8961","server":"65535","farm":66,"title":"Waldohreule - Jungtier","ispublic":1,"isfriend":0,"isfamily":0},{"id":"53150944156","owner":"196567533@N02","secret":"9dba8f591b","server":"65535","farm":66,"title":"Waldohreule - Jungtier","ispublic":1,"isfriend":0,"isfamily":0},{"id":"53151344985","owner":"37283911@N08","secret":"eba6929740","server":"65535","farm":66,"title":"GAZ-24 Volga (1972)","ispublic":1,"isfriend":0,"isfamily":0},{"id":"53150335047","owner":"37283911@N08","secret":"d079765a3a","server":"65535","farm":66,"title":"GAZ-24 Volga (1972)","ispublic":1,"isfriend":0,"isfamily":0},{"id":"53150752176","owner":"8733637@N04","secret":"00acf3e0ca","server":"65535","farm":66,"title":"Ursus C315 1967","ispublic":1,"isfriend":0,"isfamily":0},{"id":"53150175922","owner":"8733637@N04","secret":"da646893e9","server":"65535","farm":66,"title":"Impulsa","ispublic":1,"isfriend":0,"isfamily":0},{"id":"53151194310","owner":"20395737@N02","secret":"63055f63f8","server":"65535","farm":66,"title":"Heiige zon 29.8.23.","ispublic":1,"isfriend":0,"isfamily":0},{"id":"53150717911","owner":"74404033@N05","secret":"bc22239091","server":"65535","farm":66,"title":"General Dynamics F-16A Fighting Falcon J-136 Finningley 18.09.1993","ispublic":1,"isfriend":0,"isfamily":0},{"id":"53151128740","owner":"72940745@N06","secret":"ee4fed60aa","server":"65535","farm":66,"title":"A view from the room","ispublic":1,"isfriend":0,"isfamily":0},{"id":"53151145698","owner":"161363177@N06","secret":"bab011c458","server":"65535","farm":66,"title":"Kroondomeinen - Aardhuisweg","ispublic":1,"isfriend":0,"isfamily":0},{"id":"53150801979","owner":"98564894@N00","secret":"4ddb4f37e2","server":"65535","farm":66,"title":"20220823_9910e","ispublic":1,"isfriend":0,"isfamily":0},{"id":"53150964855","owner":"53035741@N06","secret":"ec1b4bdff4","server":"65535","farm":66,"title":"Bonaire 23 P4282182a sm Tessellated Blenny, Hypsoblennius invemar","ispublic":1,"isfriend":0,"isfamily":0},{"id":"53151028248","owner":"53035741@N06","secret":"9c341879c2","server":"65535","farm":66,"title":"Bonaire 23 P4282188a sm Orange-spotted Blenny, Hypleurochilus springeri","ispublic":1,"isfriend":0,"isfamily":0},{"id":"53150734524","owner":"53035741@N06","secret":"8c21c4561e","server":"65535","farm":66,"title":"Bonaire 23 P4271947a sm Two-bar Triplefin, Enneanectes deloachorum","ispublic":1,"isfriend":0,"isfamily":0},{"id":"53150530411","owner":"53035741@N06","secret":"8d033ea154","server":"65535","farm":66,"title":"Bonaire 23 P4272032a sm Longfin Damselfish, Stegastes diencaeus, juvenile","ispublic":1,"isfriend":0,"isfamily":0},{"id":"53151027718","owner":"53035741@N06","secret":"85737a1027","server":"65535","farm":66,"title":"Bonaire 23 P4272071a sm Spotted Drum, Eques punctatus, juvenile","ispublic":1,"isfriend":0,"isfamily":0},{"id":"53150734034","owner":"53035741@N06","secret":"79ed8b0417","server":"65535","farm":66,"title":"Bonaire 23 P4272092a sm Southern Smoothhead Glass Blenny, Emblemariopsis bottomei","ispublic":1,"isfriend":0,"isfamily":0},{"id":"53150964100","owner":"53035741@N06","secret":"75b374282f","server":"65535","farm":66,"title":"Bonaire 23 P4272099a sm Goldspot Goby, Gnatholepis thompsoni","ispublic":1,"isfriend":0,"isfamily":0},{"id":"53151027523","owner":"53035741@N06","secret":"94b8cb6437","server":"65535","farm":66,"title":"Bonaire 23 P4282110a sm Medusa Blenny, Acanthemblemaria medusa","ispublic":1,"isfriend":0,"isfamily":0},{"id":"53150964030","owner":"53035741@N06","secret":"0960021ed6","server":"65535","farm":66,"title":"Bonaire 23 P4282133a sm Pearl Blenny, Entomacrodus nigricans","ispublic":1,"isfriend":0,"isfamily":0},{"id":"53150733884","owner":"53035741@N06","secret":"a233c4e49b","server":"65535","farm":66,"title":"Bonaire 23 P4282149a sm Seaweed Blenny, Parablennius marmoreus","ispublic":1,"isfriend":0,"isfamily":0}]},"stat":"ok"}
